Analyzing Music Data
…
Analyzing Music Data

    Author

             fasehab 

Introduction

This is a Quarto document for analyzing music data.

# A tibble: 317 × 7
   artist         track                   date.entered   wk1   wk2   wk3   wk4
   <chr>          <chr>                   <date>       <dbl> <dbl> <dbl> <dbl>
 1 2 Pac          Baby Don't Cry (Keep... 2000-02-26      87    82    72    77
 2 2Ge+her        The Hardest Part Of ... 2000-09-02      91    87    92    NA
 3 3 Doors Down   Kryptonite              2000-04-08      81    70    68    67
 4 3 Doors Down   Loser                   2000-10-21      76    76    72    69
 5 504 Boyz       Wobble Wobble           2000-04-15      57    34    25    17
 6 98^0           Give Me Just One Nig... 2000-08-19      51    39    34    26
 7 A*Teens        Dancing Queen           2000-07-08      97    97    96    95
 8 Aaliyah        I Don't Wanna           2000-01-29      84    62    51    41
 9 Aaliyah        Try Again               2000-03-18      59    53    38    28
10 Adams, Yolanda Open My Heart           2000-08-26      76    76    74    69
# ℹ 307 more rows
…
